1 10 20
100 200 125
201 210 89
900 1000 174
1 2 2
13 37 112
69 420 144
50 51 25
1 100 119
2 3 8
3 4 8
4 5 6
5 6 9
6 7 17
7 8 17
8 9 20
9 10 20
2 1 2
99 100 26
49 50 25
20 30 112
30 40 107
40 50 110
50 60 113
60 70 108
70 80 116
80 90 111
90 100 119
1 500 144
2 500 144
499 500 111
500 900 179
777 888 179
11 22 21
1 99999 351
1 1000 179
1000 2000 182
99998 99999 227
17 34 112
17 51 112
10 5 20
32 64 113
64 128 119
128 256 128
256 512 144
512 1024 179
1024 2048 182
3 19 21
2 5 8
3 5 8
5 7 17
7 11 20
11 13 15
13 17 18
17 19 21
19 23 21
23 29 112
29 31 107
31 37 107
37 41 110
41 43 110
43 47 105
47 53 105
53 59 113
59 61 33
61 67 108
67 71 103
71 73 116
73 79 116
79 83 111
83 89 111
89 97 119
97 101 119
101 103 88
103 107 101
109 113 114
113 127 109
127 131 122
131 137 91
137 139 91
139 149 117
149 151 24
151 157 86
157 163 99
163 167 112
167 173 125
173 179 81
179 181 32
181 191 107
191 193 120
193 197 120
197 199 120
77 89 111
420 421 41
10 1 20
100 10 119
20 1 21
1 5 8
3 1 8
200 11 125
21 100 119
68 1000 179
50 50 25
1 1 1
1 999999 525
999998 999999 259
