......................
----------------------------------------------------------------------
Ran 22 tests in 0.610s

OK
Name             Stmts   Miss Branch BrPart  Cover   Missing
------------------------------------------------------------
Collatz.py          37      0     14      0   100%
TestCollatz.py      92      0      0      0   100%
------------------------------------------------------------
TOTAL              129      0     14      0   100%
