..................
----------------------------------------------------------------------
Ran 18 tests in 0.007s

OK
Name             Stmts   Miss Branch BrPart  Cover   Missing
------------------------------------------------------------
Collatz.py          35      0     14      0   100%
TestCollatz.py      78      0      0      0   100%
------------------------------------------------------------
TOTAL              113      0     14      0   100%
